\contentsline {section}{\numberline {1}physical layer packet}{1}
\contentsline {section}{\numberline {2}commands}{1}
\contentsline {section}{\numberline {3}car instruction}{1}
\contentsline {section}{\numberline {4}dongle instruction}{2}
\contentsline {section}{\numberline {5}Register Description}{2}
\contentsline {subsection}{\numberline {5.1}car registers}{2}
\contentsline {subsection}{\numberline {5.2}dongle registers}{3}
